LOMEM=768
CALL-151


4A:00 03 00 10 3A CC 05 BF FD BF BF BF F8 F8 BF B7 7F BF BF B7 FF 21


:F7 BF 3F 3F 3F BF 77 10 60 3C 02 0A 01 FB 01 3B ED ED ED ED ED EC EC EC
:FF F7 B7 F7 FF B7 FF 35 17 7F F7 F7 BD B7 DF F7 B7 B7 F7 F7 AE A0 D0 00
:08 08 00 00 05 00 09 03 59 7D 82 7D 80 53 5B 61 77 37 F7 75 35 77 F1 37
:77 57 F7 71 CD F7 F7 B7 FF 97 B7 97 B2 B7 B7 00 F6 F7 00 00 00 FF 00 00
:21 08 07 FF FF FF FF FF FF 02 30 04 2D 04 1F FA 37 03 2D 04 00 FF 03 02
:20 FE 2B 05 25 05 FF F7 37 05 30 04 25 05 54 05 65 64 0E 0C 03 00 00 00
:00 00 63 00 77 75 F7 25 00 00 00 00 00 1F 00 FF
300:86 40 0B 03 A0 AD AD AD 1E AD 1E 88 40 1F 03 A0 A0 A0 A0 AA A0 BE A1 BC


:AB AB AB BC AA BE 1E A2 00 25 03 80 02 A6 00 2B 03 C0 02 A4 00 31 03 07
:00 94 00 37 03 09 00 86 00 3D 03 63 00 84 00 43 03 C0 02 96 00 49 03 02
:00 A6 B1 4F 03 02 00 9C 00 55 03 08 00 AC 00 5B 03 02 00 98 00 61 03 03
:00 92 00 67 03 3A 00 A0 00 6D 03 01 00 84 B1 73 03 02 00 96 B1 79 03 03
:00 A8 00 7F 03 06 00 8A B1 85 03 78 00 8A B2 8B 03 01 00 8A B0 91 03 12
:02 B2 B0 97 03 08 00 B0 B0 9D 03 12 00 B2 B1 A3 03 01 00 B0 B1 A9 03 02
:00 B2 B2 AF 03 00 00 B0 B2 B5 03 02 00 A2 B0 BB 03 0A 00 A6 B0 C1 03 02
:00 B0 B5 C7 03 02 00 B2 B5 CD 03 07 00 A2 B9 D3 03 07 00 86 B9 D9 03 01
:00 A6 B2 DF 03 01 00 96 B2 E5 03 00 00 84 B2 EB 03 00 00 96 B5 F1 03 C1
:FF B2 B6 F7 03 07 00 B0 B6 FD 03 02 00 84 B8 03 04 00 00 96 B8 09 04 00
:00 B2 00 0F 04 FF FF 8C B2 15 04 00 00 B0 00 1B 04 08 00 8C B1 21 04 00
:00 A2 B1 27 04 0B 00 94 B5 2D 04 02 00 0A 00 4E 14 0A 00 4E C3 40 22 B6
:06 00 72 43 C4 40 22 B1 0F 00 72 01 24 14 00 D1 71 B6 80 02 03 D3 71 B7
:C0 02 03 C4 40 70 28 A0 A0 A0 A0 AA A0 BE A1 BC AB AB AB BC AA BE 29 01
:17 1E 00 53 28 D4 D9 D0 C5 A0 C1 A0 CE D5 CD C2 C5 D2 A0 29 27 D2 01 18
:28 00 55 CA 56 B1 01 00 57 D2 03 C3 71 2F 3F B2 00 01 72 03 59 CA 01 0C
:32 00 C2 71 D1 03 5C B1 4C 04 01 20 3C 00 D3 B1 71 B7 4B 00 03 CE 71 D3
:B1 03 D6 71 B1 01 00 03 CC 71 B1 0A 00 03 5C B1 B0 04 01 20 46 00 C2 B1
:71 B2 02 00 03 CE 71 C2 B1 03 D6 71 B1 0A 00 03 CC 71 B2 14 00 03 5C B1
:B0 04 01 20 50 00 CB B1 71 B7 07 00 03 CE 71 CB B1 03 D6 71 B2 14 00 03
:CC 71 B4 28 00 03 5C B1 B0 04 01 22 5A 00 D4 71 B1 0F 00 03 5C B1 14 05
:03 C5 B0 71 2F 3F B4 00 10 72 03 5C B1 78 05 03 5C B1 E8 03 01 2F 6E 00
:63 03 53 28 C3 CF CD CD C1 CE C4 A0 29 27 C3 03 60 C3 1C B0 00 00 1E C3
:19 B5 05 00 24 B1 6E 00 03 5F B1 64 00 14 C3 12 B2 C8 00 01 32 C8 00 53
:28 D6 C5 C3 D4 CF D2 A0 29 27 D8 27 D9 03 D8 B0 71 D8 B0 12 D8 03 D9 B0
:71 D9 B0 12 D9 03 C5 B1 71 C5 B1 13 31 3F D8 72 13 31 3F D9 72 01 24 D2
:00 60 D8 B0 1C B0 00 00 1E D8 B0 19 B6 3F 00 1E D9 B0 1C B0 00 00 1E D9
:B0 19 B6 3F 00 24 B2 FA 00 01 2D DC 00 C5 B0 71 C5 B0 12 D8 12 B6 40 00
:14 D9 03 D1 B1 71 D1 B0 03 D3 B1 71 D3 B0 03 5C B1 78 05 03 60 D1 B0 16
:D1 B1 24 B2 FF 00 01 2A E6 00 C5 B1 71 C5 B1 13 B2 19 00 03 D4 71 D4 13
:B1 01 00 03 5C B1 E8 03 03 5C B1 78 05 03 60 D4 18 B0 00 00 24 B2 04 01
:01 12 F0 00 C3 40 70 28 D4 C9 CD C5 29 03 5F B9 D4 03 01 14 FA 00 C3 40
:70 28 C7 C1 CC C1 D8 D9 29 03 5F B9 D4 03 01 12 FF 00 64 D3 12 D3 B1 65
:B0 00 00 03 5C B1 1A 04 01 2F 04 01 5C B1 08 07 03 60 C2 B2 16 B0 00 00
:24 B2 22 01 03 60 31 3F D8 B6 13 D8 B2 72 12 31 3F D9 B6 13 D9 B2 72 17
:B1 01 00 24 B2 22 01 01 27 0E 01 61 28 AD A0 C4 CF C3 CB C5 C4 A0 AD 29
:03 5C B1 14 05 03 C2 B1 71 C2 B1 13 B1 01 00 03 C2 B2 71 B0 00 00 01 2B
:18 01 64 D1 12 D1 B0 65 2E 3F D1 12 D1 B0 72 13 B1 0A 00 03 64 D3 12 D8
:B6 12 B8 08 00 14 D9 B6 65 B0 00 00 03 5F B1 6E 00 01 15 22 01 60 CB B2
:17 B0 00 00 25 5C B5 26 02 03 5F B1 6E 00 01 1D 2C 01 C3 40 70 28 D3 C8
:CF D2 D4 29 03 5C B3 5E 01 03 5C B2 D0 07 03 5F B1 6E 00 01 23 5E 01 61
:C3 40 45 28 A0 D2 C1 CE C7 C5 A0 D3 C5 CE D3 CF D2 A0 D3 C3 C1 CE 29 03
:5C B3 68 01 03 5B 01 20 68 01 61 28 C6 CF D2 A0 D1 D5 C1 C4 D2 C1 CE D4
:A0 29 46 D8 B1 45 28 AC 29 46 D9 B1 03 5B 01 1D 90 01 C3 40 70 28 CC CF
:CE C7 29 03 5C B3 5E 01 03 CE 71 B3 03 00 03 5C B8 70 03 01 3E 9A 01 55
:D9 56 D9 B1 12 B1 01 00 57 D9 B1 13 B1 01 00 58 36 B1 01 00 03 C6 B2 71
:B0 00 00 03 60 D9 1C B0 00 00 1E D9 19 B7 07 00 25 C6 B2 71 B1 01 00 03
:5C B4 D6 01 03 5C B4 E0 01 01 2F A4 01 55 D8 56 D8 B1 13 B1 01 00 57 D8
:B1 12 B1 01 00 03 C6 B1 71 B0 00 00 03 60 D8 1C B0 00 00 1E D8 19 B7 07
:00 25 C6 B1 71 B1 01 00 01 20 AE 01 60 C6 B1 16 B0 00 00 1D C6 B2 16 B0
:00 00 24 B4 B8 01 03 61 C3 40 47 03 5F B4 CC 01 01 34 B8 01 D1 B9 71 D8
:12 B8 08 00 14 D9 03 5C B1 DC 05 03 64 D1 12 D1 B9 65 C3 B9 12 B4 28 00
:03 61 28 A1 A0 29 46 CB B2 46 C2 B2 46 D3 B2 45 28 A0 29 47 01 22 CC 01
:59 D8 03 61 28 A1 29 03 5C B4 E0 01 03 59 D9 03 5C B4 D6 01 03 5C B8 7A
:03 03 5F B1 6E 00 01 16 D6 01 C3 40 70 28 AB AD AD AD AD AD 29 03 5C B1
:40 06 03 5B 01 16 E0 01 C3 40 70 28 A1 A0 A0 A0 A0 A0 29 03 5C B1 40 06
:03 5B 01 39 F4 01 60 CB B2 16 B0 00 00 24 B6 B2 02 03 5C B7 16 03 03 61
:28 C5 CE C5 D2 C7 D9 BA A0 29 46 C5 B1 03 53 28 C6 C9 D2 C5 A0 29 27 C3
:03 60 C3 1C B1 01 00 24 B1 6E 00 01 36 08 02 C5 B1 71 C5 B1 13 C3 03 5C
:B1 08 07 03 CB B5 71 CB B5 13 C3 13 38 D2 14 B9 09 00 72 03 60 CB B5 19
:B0 00 00 24 B5 12 02 03 5C B1 6C 07 03 5F B1 6E 00 01 0D 12 02 5C B5 26
:02 03 5F B5 F4 01 01 48 26 02 CA B5 71 CB B5 15 B5 05 00 03 CB B5 71 CB
:B5 13 CA B5 03 C5 B1 71 C5 B1 13 CA B5 15 D2 03 62 CA B5 15 D2 45 28 A0
:D5 CE C9 D4 D3 A0 CF C6 A0 D0 C8 C1 D3 C5 D2 A0 C4 C1 CD C1 C7 C5 29 03
:5C B1 08 07 03 5B 01 35 58 02 60 CB B2 16 B0 00 00 24 B6 B2 02 03 60 C5
:B2 17 B0 00 00 24 B6 62 02 03 61 28 CE CF A0 CD CF D2 C5 A0 D4 CF D2 D0
:C5 C4 CF C5 D3 29 03 5F B1 6E 00 01 25 62 02 C5 B2 71 C5 B2 13 B1 01 00
:03 60 D2 19 2F 3F B1 0F 00 72 24 B6 80 02 03 5C B1 6C 07 03 5F B1 6E 00
:01 1C 80 02 61 28 D9 CF D5 A0 CD C9 D3 D3 C5 C4 A1 29 03 5C B5 26 02 03
:5F B1 6E 00 01 20 B2 02 61 28 CE CF D4 C8 C9 CE C7 A0 D4 CF A0 D3 C8 CF
:CF D4 A0 C1 D4 A1 29 03 5F B1 6E 00 01 25 BC 02 53 28 C3 CF CD D0 D5 D4
:C5 D2 A0 D2 C5 D1 D5 C5 D3 D4 A0 29 27 C3 03 60 C3 16 B0 00 00 24 B8 20
:03 01 17 C6 02 61 28 D3 D4 C1 D4 D5 D3 A0 D2 C5 D0 CF D2 D4 BA 29 03 63
:01 19 D0 02 5C B7 16 03 03 61 28 CB CC C9 CE C7 CF CE D3 A0 BD 29 49 CB
:B1 01 19 DA 02 5C B7 16 03 03 61 28 D3 D4 C1 D2 C4 C1 D4 C5 D3 A0 BD 29
:49 D4 01 1A E4 02 5C B7 16 03 03 61 28 D3 D4 C1 D2 C2 C1 D3 C5 D3 A0 BD
:29 49 C2 B1 01 1A EE 02 5C B7 16 03 03 61 28 D4 CF D2 D0 C5 C4 CF C5 D3
:A0 BD 29 49 C5 B2 01 17 F8 02 5C B7 16 03 03 61 28 C5 CE C5 D2 C7 D9 A0
:BD 29 49 C5 B1 01 08 02 03 5F B1 6E 00 01 14 16 03 61 28 D2 C5 CD C1 C9
:CE C9 CE C7 A0 29 47 03 5B 01 2F 20 03 61 28 A0 C7 C1 CC C1 C3 D4 C9 C3
:A0 CD C1 D0 29 03 61 28 A0 29 47 03 5C B3 68 01 03 C3 40 70 28 A0 AD AD
:AD 29 03 CE 71 B8 08 00 01 1D 2A 03 5C B8 70 03 03 55 D9 56 B7 07 00 57
:B0 00 00 58 36 B1 01 00 03 5C B1 40 06 01 28 34 03 55 D8 56 B0 00 00 57
:B7 07 00 03 D1 B9 71 D8 12 B8 08 00 14 D9 03 5C B1 DC 05 03 D0 71 2E 3F
:D1 12 D1 B9 72 01 1C 3E 03 60 D0 19 B3 27 00 24 B8 48 03 03 61 28 A0 A0
:A0 A0 29 47 03 5F B8 52 03 01 12 48 03 61 28 A0 29 46 CB B2 46 C2 B2 46
:D3 B2 47 01 08 52 03 59 D8 03 63 01 15 5C 03 59 D9 03 5C B1 40 06 03 5C
:B8 7A 03 03 5F B1 6E 00 01 11 70 03 C2 B8 71 C2 B2 03 CB B8 71 CB B2 03
:5B 01 11 7A 03 C2 B2 71 C2 B8 03 CB B2 71 CB B8 03 5B 01 1C D4 03 63 03
:61 28 AD AD A0 CF D5 D4 A0 CF C6 A0 29 45 C3 40 45 28 A0 AD AD 29 01 21
:DE 03 61 28 D9 CF D5 A0 CC C5 C6 D4 A0 29 46 CB B1 45 28 A0 CB CC C9 CE
:C7 CF CE D3 29 03 51 01 24 E8 03 C2 71 D3 03 5C B1 4C 04 03 D1 B9 71 D1
:B0 03 5C B1 DC 05 03 64 D1 12 D1 B9 65 C3 B9 12 B4 28 00 01 19 F2 03 CE
:71 D3 B2 03 D6 71 B1 01 00 03 CC 71 B2 02 00 03 5C B1 B0 04 01 35 FC 03
:CE 71 CB B2 03 D6 71 B3 03 00 03 CC 71 B4 04 00 03 5C B1 B0 04 03 CB B5
:71 B1 64 00 03 D9 B5 71 C9 15 B8 08 00 03 D8 B5 71 C9 13 B8 08 00 14 D9
:B5 01 2E 06 04 CE 71 C2 B2 03 D6 71 B2 02 00 03 CC 71 B3 03 00 03 5C B1
:B0 04 03 D9 B6 71 C9 15 B8 08 00 03 D8 B6 71 C9 13 B8 08 00 14 D9 B6 01
:4A 0B 04 C3 40 70 28 C7 D2 C5 C5 CE 29 03 60 CB B2 17 B0 00 00 25 C3 40
:70 28 D2 C5 C4 A1 29 03 63 03 61 28 D3 D4 C1 D2 C4 C1 D4 C5 BA A0 29 46
:B3 CE 0C 13 D4 45 28 AC A0 A0 C3 CF CE C4 C9 D4 C9 CF CE BA A0 29 45 C3
:40 01 33 10 04 61 28 D1 D5 C1 C4 D2 C1 CE D4 A0 29 46 D8 B1 45 28 AC 29
:46 D9 B1 45 28 A0 A0 AD A0 A0 D3 C5 C3 D4 CF D2 A0 29 46 D8 B2 45 28 AC
:29 46 D9 B2 01 20 1A 04 D0 71 2E 3F D3 12 D3 B0 72 03 64 D3 12 D3 B0 65
:B4 04 00 03 60 D0 16 B0 00 00 25 5B 01 1F 24 04 63 03 61 28 AA AA AA A0
:C3 CF CC CC C9 D3 C9 CF CE A0 D7 C9 D4 C8 A0 C1 A0 29 47 01 3A 2E 04 60
:D0 16 B1 01 00 25 61 28 D3 D4 C1 D2 29 47 03 60 D0 16 B2 02 00 25 61 28
:D3 D4 C1 D2 C2 C1 D3 C5 29 47 03 60 D0 16 B3 03 00 25 61 28 CB CC C9 CE
:C7 CF CE 29 47 01 21 38 04 61 28 A0 AA AA AA 29 03 60 D0 16 B3 03 00 25
:CB B1 71 CB B1 13 B1 01 00 03 5F B9 DE 03 01 1C 4C 04 55 CB 56 B0 00 00
:57 B6 3F 00 03 64 C2 12 CB 65 B0 00 00 03 59 CB 03 5B 01 15 B0 04 60 CE
:16 B0 00 00 25 5B 03 55 CB 56 B1 01 00 57 CE 01 2E BA 04 C9 71 2F 3F B6
:40 00 72 03 D0 71 2E 3F C2 12 C9 72 03 60 D0 12 D6 18 CC 24 B1 BA 04 03
:64 C2 12 C9 65 D0 12 D6 03 59 CB 03 5B 01 13 14 05 C5 B1 71 B5 F4 01 03
:C5 B2 71 B3 03 00 03 5B 01 48 78 05 D9 B0 71 C5 B0 15 B6 40 00 03 D8 B0
:71 C5 B0 13 B6 40 00 14 D9 B0 03 D9 B1 71 D9 B0 15 B8 08 00 03 D8 B1 71
:D8 B0 15 B8 08 00 03 D9 B2 71 D9 B0 13 B8 08 00 14 D9 B1 03 D8 B2 71 D8
:B0 13 B8 08 00 14 D8 B1 01 33 82 05 D1 B0 71 D8 B1 12 B8 08 00 14 D9 B1
:03 D3 B0 71 D8 B2 12 B8 08 00 14 D9 B2 03 D2 71 31 3F D8 B5 13 D8 B2 72
:12 31 3F D9 B5 13 D9 B2 72 03 5B 01 20 DC 05 C3 B9 71 2E 3F D1 12 D1 B9
:72 03 60 C3 B9 18 B4 28 00 25 C3 B9 71 C3 B9 13 B4 28 00 01 38 E6 05 D3
:B2 71 C3 B9 13 B1 0A 00 14 38 C3 B9 15 B1 0A 00 72 03 CB B2 71 C3 B9 15
:B2 14 00 03 C2 B2 71 38 C3 B9 13 D3 B2 13 B2 14 00 14 CB B2 72 15 B1 0A
:00 03 5B 01 23 40 06 55 CA 56 B1 01 00 57 CE 03 61 C3 40 47 03 59 CA 03
:61 C3 40 2A B1 01 00 23 B1 01 00 72 03 5B 01 0D 08 07 60 C5 B1 19 B0 00
:00 25 5B 01 14 12 07 C3 40 70 28 C5 CE C5 D2 C7 D9 29 03 5F B9 D4 03 01
:47 6C 07 61 28 AA AA AA A0 C2 CF CF CD A0 AA AA AA 29 03 CB B1 71 CB B1
:13 B1 01 00 03 CB B2 71 B0 00 00 03 64 D1 12 D1 B0 65 2E 3F D1 12 D1 B0
:72 13 B2 14 00 03 64 D3 12 D8 B5 12 B8 08 00 14 D9 B5 65 B0 00 00 01 26
:76 07 60 CB B1 25 5B 03 63 03 61 28 CD C9 D3 D3 C9 CF CE A0 C1 C3 C3 CF
:CD D0 CC C9 D3 C8 C5 C4 A1 29 03 51 01 18 D0 07 C3 40 70 28 AB AD AD AD
:29 03 CE 71 B8 08 00 03 5C B1 40 06 01 1E DA 07 55 D9 56 B7 07 00 57 B0
:00 00 58 36 B1 01 00 03 55 D8 56 B0 00 00 57 B7 07 00 01 42 E4 07 D0 71
:B3 03 00 14 2E 3F D3 12 D8 12 B8 08 00 14 D9 72 12 B1 01 00 03 60 D8 16
:B0 00 00 25 61 28 A1 29 47 03 60 D8 17 B0 00 00 25 61 28 A0 29 47 03 61
:C4 40 2A D0 23 D0 12 B2 02 00 72 47 01 26 EE 07 59 D8 03 61 28 A1 29 03
:60 D9 16 B0 00 00 24 B2 F8 07 03 61 28 AB 29 47 03 50 B3 21 00 03 61 28
:AB 29 01 0D F8 07 59 D9 03 5C B1 40 06 03 5B FF

E2B3R
RUN